%YAML 1.1
%TAG !u! tag:unity3d.com,2011:
--- !u!114 &11400000
MonoBehaviour:
  m_ObjectHideFlags: 0
  m_CorrespondingSourceObject: {fileID: 0}
  m_PrefabInstance: {fileID: 0}
  m_PrefabAsset: {fileID: 0}
  m_GameObject: {fileID: 0}
  m_Enabled: 1
  m_EditorHideFlags: 0
  m_Script: {fileID: 11500000, guid: bcec93bd4cec4ea59ed32afada7122da, type: 3}
  m_Name: SaveData
  m_EditorClassIdentifier: 
  CurrentNight: 0
  CurrentNightStatus: 0
  ClueInventory: {fileID: 11400000, guid: 00e27d95c98126541967f4104e38d861, type: 2}
  StoryLineData: {fileID: 11400000, guid: 74a0311e4ef3fcc43845a61e955d346b, type: 2}
