%YAML 1.1
%TAG !u! tag:unity3d.com,2011:
--- !u!114 &11400000
MonoBehaviour:
  m_ObjectHideFlags: 0
  m_CorrespondingSourceObject: {fileID: 0}
  m_PrefabInstance: {fileID: 0}
  m_PrefabAsset: {fileID: 0}
  m_GameObject: {fileID: 0}
  m_Enabled: 1
  m_EditorHideFlags: 0
  m_Script: {fileID: 11500000, guid: fa0b45a609bc4612bfe8126bafc4559a, type: 3}
  m_Name: StoryLineSettings
  m_EditorClassIdentifier: 
  UnplayedStoryLineProbability: 0.1
  PlayedStoryLineProbability: 0.8
  CompletedStoryLines:
    Ben: 0
    Alex: 0
    Jake: 0
    Ryan: 0
    Julie: 0
    Alyssa: 0
  AvailableStoryLines:
    Ben: 1
    Alex: 0
    Jake: 0
    Ryan: 0
    Julie: 0
    Alyssa: 1
