%YAML 1.1
%TAG !u! tag:unity3d.com,2011:
--- !u!114 &11400000
MonoBehaviour:
  m_ObjectHideFlags: 0
  m_CorrespondingSourceObject: {fileID: 0}
  m_PrefabInstance: {fileID: 0}
  m_PrefabAsset: {fileID: 0}
  m_GameObject: {fileID: 0}
  m_Enabled: 1
  m_EditorHideFlags: 0
  m_Script: {fileID: 11500000, guid: dee353608f3d47499983035ad6446cc5, type: 3}
  m_Name: TestClue2
  m_EditorClassIdentifier: 
  sprite: {fileID: 21300000, guid: 80ee367f0a16c174c81c317013f3d4f3, type: 3}
  description: Test Clue 2
